{
  "project_info": {
    "project_number": "477732691560",
    "firebase_url": "https://gis01-e08da.firebaseio.com",
    "project_id": "gis01-e08da",
    "storage_bucket": "gis01-e08da.appspot.com"
  },
  "client": [
    {
      "client_info": {
        "mobilesdk_app_id": "1:477732691560:android:78ef00060dc955b8",
        "android_client_info": {
          "package_name": "com.brl.gis"
        }
      },
      "oauth_client": [
        {
          "client_id": "477732691560-pjf038cb4rs684djiv4qaacnrqfouddj.apps.googleusercontent.com",
          "client_type": 1,
          "android_info": {
            "package_name": "com.brl.gis",
            "certificate_hash": "80a36546196d91a3c577abc26115c1c91f8e9f2f"
          }
        },
        {
          "client_id": "477732691560-flolq0pett80tur8sosef51dabg6cdon.apps.googleusercontent.com",
          "client_type": 1,
          "android_info": {
            "package_name": "com.brl.gis",
            "certificate_hash": "b55ecded007d075f97814660a7fcab0bab72d013"
          }
        },
        {
          "client_id": "477732691560-hn2rcspiujl36tj5422k8fjatds6rljg.apps.googleusercontent.com",
          "client_type": 3
        }
      ],
      "api_key": [
        {
          "current_key": "AIzaSyDJsAwUI64Z87YxIRe5-prRs4zGqGdUjNA"
        }
      ],
      "services": {
        "analytics_service": {
          "status": 1
        },
        "appinvite_service": {
          "status": 2,
          "other_platform_oauth_client": [
            {
              "client_id": "477732691560-hn2rcspiujl36tj5422k8fjatds6rljg.apps.googleusercontent.com",
              "client_type": 3
            }
          ]
        },
        "ads_service": {
          "status": 2
        }
      }
    }
  ],
  "configuration_version": "1"
}